[
  { "_key": "Doc_1" },
  { "_key": "Doc_2" },
  { "_key": "Doc_3" },
  { "_key": "Doc_4" },
  { "_key": "Doc_5" },
  { "_key": "Doc_6" },
  { "_key": "Doc_7" },
  { "_key": "Doc_8" },
  { "_key": "Doc_9" },
  { "_key": "Doc_10" },
  { "_key": "Doc_11" },
  { "_key": "Doc_12" },
  { "_key": "Doc_13" },
  { "_key": "Doc_14" },
  { "_key": "Doc_15" },
  { "_key": "Doc_16" },
  { "_key": "Doc_17" },
  { "_key": "Doc_18" },
  { "_key": "Doc_19" },
  { "_key": "Doc_20" },
  { "_key": "Doc_21" },
  { "_key": "Doc_22" },
  { "_key": "Doc_23" },
  { "_key": "Doc_24" },
  { "_key": "Doc_25" },
  { "_key": "Doc_26" },
  { "_key": "Doc_27" },
  { "_key": "Doc_28" },
  { "_key": "Doc_29" },
  { "_key": "Doc_30" },
  { "_key": "Doc_31" },
  { "_key": "Doc_32" },
  { "_key": "Doc_33" },
  { "_key": "Doc_34" },
  { "_key": "Doc_35" },
  { "_key": "Doc_36" },
  { "_key": "Doc_37" },
  { "_key": "Doc_38" },
  { "_key": "Doc_39" },
  { "_key": "Doc_40" },
  { "_key": "Doc_41" },
  { "_key": "Doc_42" },
  { "_key": "Doc_43" },
  { "_key": "Doc_44" },
  { "_key": "Doc_45" },
  { "_key": "Doc_46" },
  { "_key": "Doc_47" },
  { "_key": "Doc_48" },
  { "_key": "Doc_49" },
  { "_key": "Doc_50" },
  { "_key": "Doc_51" },
  { "_key": "Doc_52" },
  { "_key": "Doc_53" },
  { "_key": "Doc_54" },
  { "_key": "Doc_55" },
  { "_key": "Doc_56" },
  { "_key": "Doc_57" },
  { "_key": "Doc_58" },
  { "_key": "Doc_59" },
  { "_key": "Doc_60" },
  { "_key": "Doc_61" },
  { "_key": "Doc_62" },
  { "_key": "Doc_63" },
  { "_key": "Doc_64" },
  { "_key": "Doc_65" },
  { "_key": "Doc_66" },
  { "_key": "Doc_67" },
  { "_key": "Doc_68" },
  { "_key": "Doc_69" },
  { "_key": "Doc_70" },
  { "_key": "Doc_71" },
  { "_key": "Doc_72" },
  { "_key": "Doc_73" },
  { "_key": "Doc_74" },
  { "_key": "Doc_75" },
  { "_key": "Doc_76" },
  { "_key": "Doc_77" },
  { "_key": "Doc_78" },
  { "_key": "Doc_79" },
  { "_key": "Doc_80" },
  { "_key": "Doc_81" },
  { "_key": "Doc_82" },
  { "_key": "Doc_83" },
  { "_key": "Doc_84" },
  { "_key": "Doc_85" },
  { "_key": "Doc_86" },
  { "_key": "Doc_87" },
  { "_key": "Doc_88" },
  { "_key": "Doc_89" },
  { "_key": "Doc_90" },
  { "_key": "Doc_91" },
  { "_key": "Doc_92" },
  { "_key": "Doc_93" },
  { "_key": "Doc_94" },
  { "_key": "Doc_95" },
  { "_key": "Doc_96" },
  { "_key": "Doc_97" },
  { "_key": "Doc_98" },
  { "_key": "Doc_99" },
  { "_key": "Doc_100" },
  { "_key": "Doc_101" },
  { "_key": "Doc_102" },
  { "_key": "Doc_103" },
  { "_key": "Doc_104" },
  { "_key": "Doc_105" },
  { "_key": "Doc_106" },
  { "_key": "Doc_107" },
  { "_key": "Doc_108" },
  { "_key": "Doc_109" },
  { "_key": "Doc_110" },
  { "_key": "Doc_111" },
  { "_key": "Doc_112" },
  { "_key": "Doc_113" },
  { "_key": "Doc_114" },
  { "_key": "Doc_115" },
  { "_key": "Doc_116" },
  { "_key": "Doc_117" },
  { "_key": "Doc_118" },
  { "_key": "Doc_119" },
  { "_key": "Doc_120" },
  { "_key": "Doc_121" },
  { "_key": "Doc_122" },
  { "_key": "Doc_123" },
  { "_key": "Doc_124" },
  { "_key": "Doc_125" },
  { "_key": "Doc_126" },
  { "_key": "Doc_127" },
  { "_key": "Doc_128" },
  { "_key": "Doc_129" },
  { "_key": "Doc_130" },
  { "_key": "Doc_131" },
  { "_key": "Doc_132" },
  { "_key": "Doc_133" },
  { "_key": "Doc_134" },
  { "_key": "Doc_135" },
  { "_key": "Doc_136" },
  { "_key": "Doc_137" },
  { "_key": "Doc_138" },
  { "_key": "Doc_139" },
  { "_key": "Doc_140" },
  { "_key": "Doc_141" },
  { "_key": "Doc_142" },
  { "_key": "Doc_143" },
  { "_key": "Doc_144" },
  { "_key": "Doc_145" },
  { "_key": "Doc_146" },
  { "_key": "Doc_147" },
  { "_key": "Doc_148" },
  { "_key": "Doc_149" },
  { "_key": "Doc_150" },
  { "_key": "Doc_151" },
  { "_key": "Doc_152" },
  { "_key": "Doc_153" },
  { "_key": "Doc_154" },
  { "_key": "Doc_155" },
  { "_key": "Doc_156" },
  { "_key": "Doc_157" },
  { "_key": "Doc_158" },
  { "_key": "Doc_159" },
  { "_key": "Doc_160" },
  { "_key": "Doc_161" },
  { "_key": "Doc_162" },
  { "_key": "Doc_163" },
  { "_key": "Doc_164" },
  { "_key": "Doc_165" },
  { "_key": "Doc_166" },
  { "_key": "Doc_167" },
  { "_key": "Doc_168" },
  { "_key": "Doc_169" },
  { "_key": "Doc_170" },
  { "_key": "Doc_171" },
  { "_key": "Doc_172" },
  { "_key": "Doc_173" },
  { "_key": "Doc_174" },
  { "_key": "Doc_175" },
  { "_key": "Doc_176" },
  { "_key": "Doc_177" },
  { "_key": "Doc_178" },
  { "_key": "Doc_179" },
  { "_key": "Doc_180" },
  { "_key": "Doc_181" },
  { "_key": "Doc_182" },
  { "_key": "Doc_183" },
  { "_key": "Doc_184" },
  { "_key": "Doc_185" },
  { "_key": "Doc_186" },
  { "_key": "Doc_187" },
  { "_key": "Doc_188" },
  { "_key": "Doc_189" },
  { "_key": "Doc_190" },
  { "_key": "Doc_191" },
  { "_key": "Doc_192" },
  { "_key": "Doc_193" },
  { "_key": "Doc_194" },
  { "_key": "Doc_195" },
  { "_key": "Doc_196" },
  { "_key": "Doc_197" },
  { "_key": "Doc_198" },
  { "_key": "Doc_199" },
  { "_key": "Doc_200" },
  { "_key": "Doc_201" },
  { "_key": "Doc_202" },
  { "_key": "Doc_203" },
  { "_key": "Doc_204" },
  { "_key": "Doc_205" },
  { "_key": "Doc_206" },
  { "_key": "Doc_207" },
  { "_key": "Doc_208" },
  { "_key": "Doc_209" },
  { "_key": "Doc_210" },
  { "_key": "Doc_211" },
  { "_key": "Doc_212" },
  { "_key": "Doc_213" },
  { "_key": "Doc_214" },
  { "_key": "Doc_215" },
  { "_key": "Doc_216" },
  { "_key": "Doc_217" },
  { "_key": "Doc_218" },
  { "_key": "Doc_219" },
  { "_key": "Doc_220" },
  { "_key": "Doc_221" },
  { "_key": "Doc_222" },
  { "_key": "Doc_223" },
  { "_key": "Doc_224" },
  { "_key": "Doc_225" },
  { "_key": "Doc_226" },
  { "_key": "Doc_227" },
  { "_key": "Doc_228" },
  { "_key": "Doc_229" },
  { "_key": "Doc_230" },
  { "_key": "Doc_231" },
  { "_key": "Doc_232" },
  { "_key": "Doc_233" },
  { "_key": "Doc_234" },
  { "_key": "Doc_235" },
  { "_key": "Doc_236" },
  { "_key": "Doc_237" },
  { "_key": "Doc_238" },
  { "_key": "Doc_239" },
  { "_key": "Doc_240" },
  { "_key": "Doc_241" },
  { "_key": "Doc_242" },
  { "_key": "Doc_243" },
  { "_key": "Doc_244" },
  { "_key": "Doc_245" },
  { "_key": "Doc_246" },
  { "_key": "Doc_247" },
  { "_key": "Doc_248" },
  { "_key": "Doc_249" },
  { "_key": "Doc_250" },
  { "_key": "Doc_251" },
  { "_key": "Doc_252" },
  { "_key": "Doc_253" },
  { "_key": "Doc_254" },
  { "_key": "Doc_255" },
  { "_key": "Doc_256" },
  { "_key": "Doc_257" },
  { "_key": "Doc_258" },
  { "_key": "Doc_259" },
  { "_key": "Doc_260" },
  { "_key": "Doc_261" },
  { "_key": "Doc_262" },
  { "_key": "Doc_263" },
  { "_key": "Doc_264" },
  { "_key": "Doc_265" },
  { "_key": "Doc_266" },
  { "_key": "Doc_267" },
  { "_key": "Doc_268" },
  { "_key": "Doc_269" },
  { "_key": "Doc_270" },
  { "_key": "Doc_271" },
  { "_key": "Doc_272" },
  { "_key": "Doc_273" },
  { "_key": "Doc_274" },
  { "_key": "Doc_275" },
  { "_key": "Doc_276" },
  { "_key": "Doc_277" },
  { "_key": "Doc_278" },
  { "_key": "Doc_279" },
  { "_key": "Doc_280" },
  { "_key": "Doc_281" },
  { "_key": "Doc_282" },
  { "_key": "Doc_283" },
  { "_key": "Doc_284" },
  { "_key": "Doc_285" },
  { "_key": "Doc_286" },
  { "_key": "Doc_287" },
  { "_key": "Doc_288" },
  { "_key": "Doc_289" },
  { "_key": "Doc_290" },
  { "_key": "Doc_291" },
  { "_key": "Doc_292" },
  { "_key": "Doc_293" },
  { "_key": "Doc_294" },
  { "_key": "Doc_295" },
  { "_key": "Doc_296" },
  { "_key": "Doc_297" },
  { "_key": "Doc_298" },
  { "_key": "Doc_299" },
  { "_key": "Doc_300" },
  { "_key": "Doc_301" },
  { "_key": "Doc_302" },
  { "_key": "Doc_303" },
  { "_key": "Doc_304" },
  { "_key": "Doc_305" },
  { "_key": "Doc_306" },
  { "_key": "Doc_307" },
  { "_key": "Doc_308" },
  { "_key": "Doc_309" },
  { "_key": "Doc_310" },
  { "_key": "Doc_311" },
  { "_key": "Doc_312" },
  { "_key": "Doc_313" },
  { "_key": "Doc_314" },
  { "_key": "Doc_315" },
  { "_key": "Doc_316" },
  { "_key": "Doc_317" },
  { "_key": "Doc_318" },
  { "_key": "Doc_319" },
  { "_key": "Doc_320" },
  { "_key": "Doc_321" },
  { "_key": "Doc_322" },
  { "_key": "Doc_323" },
  { "_key": "Doc_324" },
  { "_key": "Doc_325" },
  { "_key": "Doc_326" },
  { "_key": "Doc_327" },
  { "_key": "Doc_328" },
  { "_key": "Doc_329" },
  { "_key": "Doc_330" },
  { "_key": "Doc_331" },
  { "_key": "Doc_332" },
  { "_key": "Doc_333" },
  { "_key": "Doc_334" },
  { "_key": "Doc_335" },
  { "_key": "Doc_336" },
  { "_key": "Doc_337" },
  { "_key": "Doc_338" },
  { "_key": "Doc_339" },
  { "_key": "Doc_340" },
  { "_key": "Doc_341" },
  { "_key": "Doc_342" },
  { "_key": "Doc_343" },
  { "_key": "Doc_344" },
  { "_key": "Doc_345" },
  { "_key": "Doc_346" },
  { "_key": "Doc_347" },
  { "_key": "Doc_348" },
  { "_key": "Doc_349" },
  { "_key": "Doc_350" },
  { "_key": "Doc_351" },
  { "_key": "Doc_352" },
  { "_key": "Doc_353" },
  { "_key": "Doc_354" },
  { "_key": "Doc_355" },
  { "_key": "Doc_356" },
  { "_key": "Doc_357" },
  { "_key": "Doc_358" },
  { "_key": "Doc_359" },
  { "_key": "Doc_360" },
  { "_key": "Doc_361" }
]
